<svg width="905" height="255" viewBox="0 0 905 255" fill="none" xmlns="http://www.w3.org/2000/svg">
<path d="M447.301 161.78C427.052 176.919 398.688 174.561 381.218 156.286L0 -242.5L617.476 -599L790.356 -139.775C798.197 -118.946 791.327 -95.4419 773.503 -82.1147L447.301 161.78Z" fill="white"/>
</svg>
