<svg width="337" height="185" viewBox="0 0 337 185" fill="none" xmlns="http://www.w3.org/2000/svg">
<path fill-rule="evenodd" clip-rule="evenodd" d="M161.952 19.9884C163.431 23.9017 164.908 27.8154 166.387 31.7287C167.335 34.2364 168.282 36.7437 169.229 39.2514C169.566 40.1405 169.752 41.0525 170.402 41.6698C171.934 43.1231 174.683 44.048 176.524 45.0704C177.757 45.7555 178.99 46.4406 180.223 47.1257C180.859 47.4792 182.269 47.9231 182.715 48.5097C183.205 49.1561 182.973 50.3433 182.973 51.2372V58.9548V73.4967C176.603 72.7002 170.233 71.9043 163.863 71.1079C172.35 80.9004 180.836 90.6924 189.323 100.485C191.415 102.898 193.954 105.221 195.512 108.029C198.829 114.005 202.071 120.025 205.349 126.023C208.401 131.605 211.453 137.188 214.505 142.771L187.049 141.602C179.94 141.3 172.638 141.755 165.789 139.74C160.143 138.079 154.497 136.419 148.851 134.758C148.1 134.537 145.761 134.287 145.229 133.683C144.731 133.117 144.741 130.978 144.6 130.254C141.935 116.556 138.543 101.462 130.765 89.6719C125.189 81.22 117.664 73.8201 110.773 66.4498C108.083 63.5733 105.347 60.7311 102.752 57.7671C102.088 57.008 101.128 56.1466 100.689 55.2245C100.405 54.6288 100.008 53.4936 100.184 52.9648C100.261 52.7355 102.034 51.9128 102.288 51.7494C104.085 50.5946 105.866 49.4156 107.651 48.2422C112.666 44.9447 117.677 41.6392 122.721 38.3857C126.653 35.8488 130.575 33.1591 134.723 30.9791C139.022 28.7193 143.757 27.1289 148.265 25.3435C152.819 23.5391 157.383 21.7551 161.952 19.9884Z" fill="#60D1BC"/>
<path fill-rule="evenodd" clip-rule="evenodd" d="M7.35495 229.045C9.54211 231.106 13.5251 233.872 16.6735 232.614C18.2549 231.983 19.6055 230.596 21.0459 229.702C22.7381 228.651 24.329 227.599 25.7637 226.198C28.6259 223.402 30.793 219.318 34.1736 217.13C35.3097 216.394 37.5274 216.236 38.3157 215.061C38.6687 214.534 38.7017 213.735 38.6367 213.126C38.4953 211.814 37.7868 211.891 38.9707 210.928H37.1318C37.0965 210.218 37.8055 210.159 38.3338 210.251C38.0883 209.125 37.8379 204.718 39.8904 206.715C41.6695 208.446 40.7794 211.318 42.0393 213.193C43.0039 214.628 45.5637 213.466 45.9091 211.887C46.0643 211.177 45.2827 210.069 45.1896 209.374C44.9851 207.831 45.674 206.497 46.6744 205.329C48.8692 206.791 47.6252 209.818 48.8759 211.74C50.0077 213.478 52.5283 212.667 54.2516 212.361C56.3174 211.994 58.6531 212.365 60.6296 211.878C63.6141 211.141 62.4995 207.637 62.7948 205.375C63.1115 202.953 65.56 199.59 64.8242 197.146C64.0341 194.522 59.4147 193.955 57.2065 193.318C52.16 191.862 44.9617 191.582 41.2099 187.507C38.2259 190.835 35.8256 194.646 32.6959 197.849C29.3153 201.31 25.7044 204.504 22.4591 208.104C19.0814 211.851 15.5948 215.525 12.3398 219.38C10.9195 221.062 9.67252 222.874 8.20343 224.516C6.89725 225.975 5.52039 227.317 7.35495 229.045ZM157.351 164.323C155.801 163.498 155.603 164.015 155.604 165.713C156.05 164.898 156.493 164.679 157.351 164.323ZM170.499 197.338V194.345C169.004 194.305 169.924 196.866 170.499 197.338ZM170.865 201.797C170.865 200.471 170.901 199.209 170.518 197.919C170.318 199.324 169.935 200.541 170.865 201.797ZM164.437 292.867C163.064 292.995 160.948 292.049 159.793 293.127C158.607 294.233 158.702 297.455 158.421 298.951C157.957 301.422 157.545 303.902 157.154 306.385C156.898 308.013 156.58 309.667 158.421 310.29C161.141 311.21 165.028 309.897 167.864 309.777C173.465 309.542 179.064 309.214 184.67 309.1C190.103 308.99 195.549 309.077 200.958 309.642C203.401 309.898 205.79 310.349 208.209 310.757C209.483 310.972 212.899 311.873 214.05 310.798C216.216 308.775 212.615 304.053 211.066 302.719C208.192 300.244 204.103 298.459 200.499 297.384C198.572 296.809 195.361 295.196 193.844 297C192.679 298.384 192.726 300.232 191.057 301.28C187.192 303.71 189.454 296.74 191.869 295.882C190.247 292.086 187.156 297.446 185.873 298.733C185.417 299.192 183.933 300.702 183.289 299.943C182.806 299.374 183.77 297.337 183.948 296.783C184.22 295.941 184.906 294.661 184.709 293.748C184.352 292.096 182.035 291.645 180.647 291.508C178.494 291.295 176.383 291.977 174.255 292.205C170.992 292.555 167.704 292.56 164.437 292.867ZM186.047 137.257C190.295 137.596 194.571 136.946 198.809 137.478C202.82 137.981 206.599 139.454 210.379 140.806C204.759 127.625 197.487 115.625 188.625 104.384C184.211 98.785 179.464 93.2249 174.695 87.9262C172.476 85.461 170.181 83.0775 167.89 80.6816C165.846 78.5441 164.382 74.9141 161.929 73.318C159.835 71.9554 156.177 72.9272 153.857 73.0117C151.234 73.1073 148.043 73.3457 145.486 72.4728C143.632 71.8403 143.123 70.1524 145.443 70.0965C148.179 70.0301 150.87 70.3153 153.642 70.0587C160.824 69.3951 167.747 68.3044 174.987 68.9231C176.646 69.0645 178.829 69.7711 180.457 69.559C181.628 69.4056 180.858 69.9942 181.671 69.055C181.983 68.6957 182.358 67.851 182.451 67.3738C182.969 64.6931 181.497 60.8625 181.145 58.1637C180.819 55.666 181.108 52.9208 180.498 50.4886C179.943 48.2751 178.251 47.9799 176.167 47.7434C170.466 47.0961 164.648 46.7516 158.921 46.2638C145.852 45.1506 132.367 43.4713 119.386 46.2222C114.699 47.2155 108.984 48.7515 104.797 51.2109C103.487 51.9796 102.166 52.885 102.643 54.4778C103.137 56.1313 105.559 57.878 106.758 58.9672C115.625 67.0164 124.189 75.2266 130.417 85.5546C138.36 98.7248 142.919 112.949 145.593 128.041C146.168 131.287 146.702 132.987 150.043 133.921C153.629 134.925 157.09 135.577 160.809 135.882C169.214 136.573 177.645 136.587 186.047 137.257ZM183.2 50.039C183.844 54.8332 184.716 59.617 184.802 64.449C184.834 66.274 185.007 67.1884 186.948 67.5954C189.236 68.0751 191.562 68.4325 193.86 68.9303C204.953 71.3343 215.837 74.2868 226.689 77.6101C237.236 80.8406 247.61 84.4749 258.395 86.868C263.034 87.8975 268.462 88.5912 272.687 90.8706C277.232 93.3234 276.634 97.3446 277.042 101.761C277.587 107.663 279.337 113.377 279.953 119.275C280.247 122.094 280.515 124.93 280.471 127.766C280.433 130.184 280.087 132.857 281.712 134.892C284.973 130.533 286.518 125.05 287.161 119.708C287.473 117.111 287.349 114.493 287.439 111.884C287.511 109.783 287.464 106.441 288.832 104.687C291.807 100.875 295.675 116.153 296.043 117.785C296.662 120.531 297.172 123.3 297.788 126.047C298.061 127.264 298.412 131.689 300.043 132.13C303.423 133.045 302.681 123.546 302.735 122.1C302.842 119.181 302.914 116.259 302.846 113.337C302.796 111.229 302.388 108.94 302.631 106.83C303.226 101.65 306.138 107.108 306.957 109.036C309.026 113.904 309.962 119.114 311.818 124.06C312.127 124.883 312.852 127.652 314.001 127.704C315.279 127.761 315.269 124.9 315.342 124.065C315.767 119.221 317.199 114.411 316.767 109.517C316.33 104.575 314.598 99.4945 312.147 95.1962C306.964 86.1083 297.605 80.8903 288.64 76.1372C278.381 70.6984 267.55 66.4015 256.487 62.901C243.183 58.6911 229.522 55.2847 215.779 52.8606C208.787 51.6275 201.687 50.7456 194.624 50.0385C192.141 49.7901 189.658 49.6449 187.208 49.1724C186.283 48.9937 182.946 48.1447 183.2 50.039ZM176.053 34.524C179.558 34.5517 183.139 32.8523 186.554 32.15C190.62 31.313 194.59 30.1019 198.649 29.2281C206.596 27.5173 214.548 25.849 222.488 24.1004C225.935 23.3413 229.399 22.6805 232.833 21.865C236.506 20.9926 240.475 20.0199 244.235 20.9597C249.934 22.3843 252.341 28.6195 254.434 33.4854C255.912 36.9223 257.07 40.7534 259.375 43.7441C260.196 44.8105 261.362 46.0823 262.851 45.7368C265.615 45.0957 265.176 41.4371 264.824 39.4147C264.314 36.4799 263.591 33.5795 263.013 30.658C262.779 29.4789 260.973 21.7618 264.198 22.9567C266.591 23.8429 267.858 29.6801 268.763 31.765C269.436 33.3143 270.15 34.8536 270.905 36.3648C271.913 38.3804 274.789 45.1153 277.973 44.2467C282.53 43.0036 278.159 31.024 277.383 28.4991C276.957 27.1131 272.325 16.6021 276.234 17.4611C277.899 17.8275 279.521 20.92 280.37 22.2018C281.876 24.4754 283.376 26.7653 284.793 29.0948C286.251 31.4907 286.995 34.2178 288.441 36.5788C289.202 37.8214 290.754 39.4773 292.269 38.3269C294.632 36.5349 293.231 30.3011 292.818 27.9439C292.048 23.5615 290.136 19.0687 287.513 15.4861C283.571 10.1027 276.133 8.36324 269.878 7.31744C261.804 5.96731 253.619 6.33662 245.511 7.13542C236.393 8.03407 227.414 8.99626 218.427 10.8337C209.369 12.6855 200.307 14.5224 191.388 16.9714C187.187 18.1252 182.926 19.148 178.784 20.5024C174.381 21.9419 170.084 23.7335 165.558 24.7707C167.15 28.7432 168.743 32.7157 170.334 36.6887C171.858 35.1814 173.938 34.5068 176.053 34.524ZM98.0252 45.4707C96.6292 44.7073 95.087 44.3471 94.5777 42.6596C94.1272 41.1686 94.8968 39.4792 95.2647 38.0479C96.2938 34.0405 96.5647 29.8893 95.6541 25.8346C94.7836 27.1633 91.5253 32.2738 89.5436 29.1799C88.3483 27.3138 91.5511 24.6293 92.4861 23.3174C90.4346 22.0513 87.5046 18.6535 85.1407 20.7026C83.6128 22.0274 82.9659 23.303 80.9073 23.947C78.4082 24.7291 76.0552 24.55 73.5031 24.334C71.7163 24.1831 71.2858 23.9447 70.5878 25.3206C70.0399 26.4022 69.7566 27.7409 69.4365 28.9023C68.8058 31.1922 67.3453 35.704 69.0748 37.8492C70.5898 39.7282 76.469 38.1172 77.2855 40.5427C77.7307 41.8656 75.6057 41.9129 74.7935 42.5674C73.7878 43.3777 72.9561 44.6672 72.4095 45.819C72.0049 46.6708 71.3895 48.0783 72.0784 48.9492C73.0301 50.1541 74.794 49.2402 75.5613 48.3645C76.5798 47.2012 76.9104 45.6107 77.7604 44.3437C79.3202 42.019 79.4134 43.8684 79.8381 45.5376C80.2791 47.2719 81.3225 47.1524 82.9205 47.3751C85.7245 47.7663 88.558 48.3181 91.2874 49.0696C92.6863 49.4547 94.0422 49.9454 95.3746 50.5187C96.2331 50.8875 97.7213 52.005 98.6529 52.0156C100.379 52.0351 101.576 49.148 102.467 47.9436C100.987 47.1175 99.5119 46.2839 98.0252 45.4707ZM5.32736 222.25C9.63861 217.075 13.3722 211.453 17.6256 206.232C21.8208 201.084 26.6743 196.582 31.3825 191.919C33.6046 189.718 35.7334 187.303 38.1862 185.353C40.016 183.898 41.424 183.875 43.6249 184.52C49.8787 186.351 56.2467 188.556 62.1651 191.289C67.6759 193.835 72.6957 197.103 78.6724 198.522C84.7728 199.972 91.1159 200.437 97.3683 200.078C103.782 199.709 109.83 198.375 115.929 196.414C121.705 194.556 127.728 192.934 132.668 189.253C137.847 185.393 141.848 179.842 145.555 174.622C147.432 171.979 149.296 169.203 150.56 166.207C151.658 163.608 152.375 160.54 154.344 158.421C154.827 159.106 155.428 159.693 155.674 160.497C155.785 160.862 155.127 160.851 155.194 161.141C155.322 161.688 156.05 162.246 156.473 162.544C157.994 163.614 158.003 162.762 157.604 164.764C157.372 165.93 157.812 168.562 159.714 167.702C159.014 168.541 160.126 169.599 160.49 170.29C160.74 170.003 161.051 169.903 161.422 169.989C160.727 171.375 161.138 171.411 161.812 172.512C161.935 172.713 162.371 173.765 162.309 173.677C162.998 174.658 163.794 174.905 164.195 176.127C164.525 177.131 164.441 178.234 164.809 179.237C165.254 178.622 165.698 178.007 166.143 177.392C166.052 177.876 165.871 178.592 165.66 179.03C165.527 179.304 164.957 179.945 164.965 180.094C164.996 180.653 165.694 180.519 165.892 181.001C166.265 181.905 165.726 182.039 165.93 182.921C166.163 183.934 166.789 183.529 167.086 184.392C167.143 184.556 166.703 185.201 166.773 185.554C166.871 186.054 167.324 186.334 167.484 186.778C167.891 187.908 167.743 188.736 168.308 189.82C168.527 190.24 168.845 190.52 169 190.998C169.135 191.418 168.844 192.313 169.105 192.69C170.365 194.505 170.188 191.378 170.092 190.603C169.29 184.092 166.716 177.373 164.361 171.288C163.191 168.265 162.051 165.147 160.584 162.252C159.993 161.085 159.312 159.882 158.336 158.99C157.101 157.861 155.35 157.41 154.232 156.15C154.408 156.348 153.02 155.035 153.242 155.467C153.043 155.08 153.39 154.558 153.267 154.184C153.113 153.72 152.823 153.623 152.5 153.217C151.92 152.488 151.231 152.125 152.142 151.196C150.789 150.897 150.142 150.458 149.872 149.009C149.674 147.949 150.073 148.018 149.377 147.311C148.679 146.601 148.326 147.156 147.886 145.926C147.36 144.455 147.011 142.455 146.695 140.916C146.42 139.572 147.088 137.595 145.955 136.646C144.52 135.445 143.237 135.954 143.494 133.537C143.745 131.181 143.013 129.754 142.277 127.525C140.809 123.075 140.241 118.376 138.954 113.873C136.207 104.262 131.353 95.5975 126.134 87.1379C121.312 79.3209 114.57 72.661 108.059 66.2472C106.277 64.4905 104.514 62.7085 102.914 60.7827C101.535 59.1244 100.905 56.8666 99.5798 55.2924C98.7748 54.3364 97.276 53.9274 96.1519 53.4205C94.2772 52.5749 92.0432 51.4718 89.9273 51.6428C90.7681 54.4773 91.0423 57.7896 88.5609 59.9151C85.5506 62.4935 82.8221 59.8148 80.0626 58.3447C75.0329 55.665 67.8393 58.125 63.4536 54.1085C62.4087 53.152 62.1173 51.6237 61.0319 50.7303C60.235 50.0753 59.1012 49.9091 58.204 49.4208C55.4785 47.9374 54.1555 45.2218 55.2166 42.222C56.1865 39.4797 57.6938 38.5285 54.339 37.1387C51.6158 36.0112 50.5805 34.3124 51.8131 31.2877C52.9884 28.404 55.1412 28.072 57.1783 26.1848C59.1514 24.357 56.8849 22.2295 55.4068 20.8574C53.5005 19.0873 53.136 17.4921 55.3461 15.6514C57.6604 13.7241 60.964 13.7915 63.6619 14.7446C66.7128 15.8219 68.7227 17.613 70.0136 20.5153C71.3284 23.4702 74.5871 22.6456 77.2262 21.822C79.7502 21.0347 80.4071 19.3358 82.0644 17.5065C83.9076 15.4717 87.6642 17.2117 89.8379 18.1414C95.1926 20.4298 100.514 24.0416 100.726 30.4392C100.853 34.2541 99.2396 37.4966 98.4007 41.0773C97.6334 44.3518 102.894 44.0939 103.805 47.2614C113.523 42.1169 124.345 40.5427 135.209 40.1925C146.754 39.8199 158.467 39.5213 169.914 41.3425C167.257 36.7131 165.854 31.6365 163.542 26.8804C162.876 25.5112 162.59 25.6283 161.121 26.042C158.3 26.8365 155.5 27.7256 152.684 28.544C142.399 31.5337 132.316 35.136 122.371 39.0813C121.405 39.4649 119.247 40.5298 118.4 39.3717C117.422 38.0364 119.684 36.3901 120.599 35.7184C124.603 32.7807 129.566 30.9977 134.051 28.9367C143.855 24.432 154.713 22.2935 164.943 18.9478C187.029 11.7238 209.878 6.23724 232.831 2.61349C238.432 1.72917 244.093 1.5997 249.718 0.943271C254.701 0.361847 259.693 0.375224 264.676 0.975758C273.878 2.08558 284.547 4.48007 289.744 12.9038C294.436 20.5096 297.568 29.0609 296.371 38.0828C296.011 40.7926 294.864 44.0016 291.52 43.3032C289.201 42.8187 287.969 40.848 286.892 38.9246C285.265 36.0189 283.658 33.1132 281.894 30.2854C281.24 34.5254 283.617 38.6948 283.244 43.0141C282.989 45.9451 281.37 50.576 277.564 49.7461C272.349 48.6091 270.202 40.461 267.695 36.5521C267.568 39.5629 268.623 42.5302 268.3 45.5477C267.981 48.5284 265.652 51.3423 262.381 50.9338C259.296 50.5488 257.291 47.2432 255.98 44.7546C254.157 41.2914 252.847 37.5783 251.065 34.0921C249.396 30.8243 247.419 26.934 243.433 26.32C239.877 25.7716 235.8 27.041 232.287 27.5646C222.541 29.0169 212.992 31.4898 203.353 33.4878C193.018 35.6295 182.438 36.9304 172.422 40.3865C175.944 45.1803 185.16 44.1445 190.407 44.659C198.336 45.4368 206.366 46.0221 214.25 47.1696C222.037 48.3029 229.66 50.3147 237.386 51.7752C245.071 53.228 252.743 54.6832 260.179 57.1609C273.986 61.7611 288.022 67.583 300.187 75.6097C305.847 79.3448 310.875 83.6135 314.371 89.509C317.89 95.4412 319.58 102.149 320.225 108.973C320.627 113.222 319.945 116.899 319.122 121.035C318.526 124.029 318.333 129.042 315.932 131.234C311.35 135.419 307.545 118.445 306.699 116.395C306.09 119.755 307.086 138.682 299.734 137.142C296.453 136.456 295.709 131.952 295.164 129.239C294.172 124.294 293.283 119.25 291.585 114.487C290.495 120.904 290.041 127.59 287.693 133.719C286.133 137.789 281.684 145.012 278.582 138.043C276.255 132.817 277.054 126.819 276.775 121.27C276.466 115.122 274.7 109.191 274.075 103.102C273.833 100.744 274.053 98.0856 271.682 96.7985C269.648 95.694 266.672 95.3342 264.451 94.7174C257.871 92.8905 251.247 91.2112 244.698 89.273C238.147 87.3333 231.685 85.0673 225.221 82.8558C219.038 80.7408 212.726 79.5383 206.468 77.7271C202.91 76.6971 199.396 75.6198 195.788 74.7598C194.109 74.3599 192.41 74.0484 190.735 73.6342C189.493 73.3275 187.857 72.1699 186.581 72.1905C185.267 72.212 184.773 73.3242 183.267 73.4116C181.645 73.5052 179.996 73.1474 178.383 73.0237C174.453 72.7222 170.276 72.2349 166.356 72.7795C168.712 75.5744 171.894 77.5064 174.683 79.8216C177.9 82.4918 181.013 85.375 183.761 88.5282C189.289 94.8727 194.514 101.579 199.369 108.452C204.157 115.233 208.013 122.653 211.365 130.234C213.035 134.012 214.656 137.872 215.81 141.842C216.284 143.473 216.671 145.111 217.527 146.594C218.312 147.955 219.418 149.128 218.49 150.771C217.851 150.371 217.277 149.874 216.7 149.394C217.367 154.095 218.808 158.644 219.548 163.331C220.278 167.949 220.249 172.698 220.201 177.362C220.102 187.129 219.376 196.675 217.394 206.255C215.391 215.943 212.817 225.557 209.571 234.902C206.446 243.9 203.311 253.336 198.949 261.817C194.291 270.875 188.75 280.398 182.007 288.066C186.412 289.87 192.017 289.532 196.681 290.259C201.556 291.019 205.773 292.452 209.927 295.15C214.13 297.88 216.412 301.394 216.993 306.371C217.406 309.914 218.632 314.818 213.985 315.749C210.642 316.418 206.905 315.319 203.555 315.047C197.696 314.572 191.828 314.276 185.956 314.02C180.1 313.764 174.241 313.539 168.383 313.357C165.627 313.272 162.87 313.229 160.115 313.13C158.881 313.086 158.132 313.067 157.025 313.424C156.15 313.706 156.214 314.292 155.239 313.568C153.668 312.399 153.991 308.713 154.035 307.092C154.102 304.591 154.339 302.061 154.827 299.608C155.116 298.15 158.63 288.751 155.898 288.355C159.072 284.867 160.34 279.885 161.766 275.513C163.553 270.035 165.122 264.572 166.353 258.938C168.983 246.903 170.145 234.737 170.145 222.423C157.954 229.937 145.055 234.008 130.696 234.461C116.42 234.913 100.735 233.74 87.1792 228.991C80.9016 226.792 75.2784 223.903 69.8961 220.012C67.9669 218.617 65.9001 215.458 63.3681 215.512C60.3463 215.577 56.9623 216.721 53.9616 217.21C48.2228 218.146 40.7326 218.674 35.8739 222.223C33.2348 224.152 31.3434 226.85 28.988 229.072C27.1965 230.762 24.8273 231.68 23.0491 233.37C21.1305 235.194 21.8925 237.576 18.7111 237.724C15.9918 237.85 13.0101 236.756 10.6648 235.471C5.98569 232.909 1.00275 227.44 5.32736 222.25Z" fill="black"/>
<path fill-rule="evenodd" clip-rule="evenodd" d="M50.3017 100.381C43.4541 105.245 35.5999 108.568 28.4441 112.948C26.653 114.045 21.0728 116.321 21.1268 118.355C21.1584 119.544 22.8353 121.035 23.5696 121.86C24.8275 123.271 26.0109 124.698 27.1718 126.191C32.4854 133.03 37.4894 139.934 43.2482 146.429C44.1153 147.406 46.7272 152.072 47.5704 149.755C47.9526 148.704 47.6378 147.523 48.6339 146.544C49.1465 146.04 51.1278 145.761 50.5506 144.679C50.166 144.852 49.781 145.026 49.3959 145.198C49.695 144.333 49.673 143.386 50.1211 142.569C50.3997 142.061 50.9438 141.82 51.1325 141.249C51.3934 140.458 50.951 139.54 51.025 138.726C51.0981 137.913 51.5191 137.146 51.7703 136.379C53.2605 131.837 53.795 127.258 54.558 122.571C55.3129 117.933 56.4886 113.441 56.9501 108.752C57.4379 103.799 58.0356 98.8562 58.833 93.943C57.4097 94.1427 56.3157 95.6892 55.3091 96.5635C53.7267 97.9375 52.0087 99.1687 50.3017 100.381ZM55.6698 148.332C55.9965 148.075 56.2521 147.76 56.4365 147.386C53.0803 145.724 55.1055 148.56 55.6698 148.332ZM57.7107 144.786C59.1736 145.189 60.2246 145.271 61.3526 144.669C61.4596 144.612 61.3364 144.172 61.5294 144.082C61.698 144.003 61.9555 144.1 62.0998 144.027C62.591 143.777 63.4509 144.324 63.5345 143.368C61.6674 142.797 59.8314 141.742 57.8602 141.564C55.1208 141.318 55.2474 144.107 57.7107 144.786ZM64.1202 139.273C66.1163 139.739 67.7607 140.83 69.8815 140.545C71.8722 140.278 73.6022 139.246 75.1725 138.056C71.244 136.944 67.1243 136.743 63.1991 135.668C61.9211 135.317 60.2418 134.394 58.8645 134.766C57.3342 135.18 57.2377 136.613 56.7791 137.917C59.2281 138.358 61.6956 138.706 64.1202 139.273ZM76.6044 133.738C78.5221 134.197 80.4823 135.198 82.0856 133.469C82.3446 133.19 82.571 133.469 82.5404 132.609C82.5084 131.703 81.6857 131.119 80.9782 130.8C79.3147 130.05 76.9828 130.535 75.216 130.425C72.3978 130.249 69.5293 129.664 66.7417 129.213C64.8115 128.901 62.8179 128.208 60.8453 128.345C59.3222 128.45 57.4847 129.748 59.7044 130.695C61.7257 131.558 64.7566 131.426 66.9466 131.799C70.1839 132.351 73.4096 132.975 76.6044 133.738ZM78.4776 124.716C78.3534 124.843 78.2292 124.97 78.105 125.096C78.1256 125.092 77.3697 124.48 77.1696 124.462C76.1973 124.377 75.2194 124.444 74.2457 124.389C72.0022 124.263 69.741 123.872 67.5376 123.441C65.7427 123.091 63.9143 122.486 62.0669 122.638C60.4673 122.769 60.2992 123.096 60.1945 124.64C64.2774 124.64 68.4831 124.554 72.4957 125.418C75.1081 125.981 77.987 127.656 79.2956 124.636C79.0228 124.663 78.7504 124.69 78.4776 124.716ZM75.925 118.181C74.9127 118.952 72.1527 117.67 70.9392 117.542C69.6216 117.403 68.3818 117.258 67.1047 116.93C65.9725 116.638 62.2264 115.183 61.3579 116.575C60.0264 118.707 65.4178 119.098 66.2725 119.204C69.8571 119.647 73.5764 120.039 77.0645 120.979C76.6846 120.047 76.3048 119.114 75.925 118.181ZM71.008 110.939C70.7462 111.925 62.6397 108.293 62.492 110.932C62.3783 112.958 70.5126 113.967 71.975 113.789C71.6324 112.856 70.7213 112.021 71.008 110.939ZM68.2862 104.744C68.1138 102.756 67.8472 102.768 66.2529 102.58C65.037 102.437 63.3659 101.725 63.6821 103.892C63.953 105.747 68.4597 106.75 68.2862 104.744ZM65.3887 97.9041C65.005 96.8368 64.1417 98.2734 64.1236 98.8161C64.0753 100.26 65.1703 99.9479 66.2243 99.9479C65.9309 99.2733 65.6519 98.5911 65.3887 97.9041ZM52.0465 89.8926C52.2615 89.6337 53.4683 89.5348 53.8118 89.4091C54.6564 89.0996 54.5365 88.4398 55.6172 89.0905C55.6712 89.036 55.5685 88.5468 55.6272 88.5244C55.6569 88.5129 56.4141 88.2272 56.6601 88.0695C57.254 87.6892 57.7891 87.3171 58.3347 86.8398C58.9146 86.3329 59.4956 85.5972 60.1582 85.1935C60.4377 85.0234 60.6661 84.7821 61.0029 84.73C61.8767 84.5953 61.6264 85.204 62.3903 85.3248C62.8609 85.3994 63.2034 84.85 63.8188 85.0869C64.3505 85.2914 64.6591 86.0372 64.8961 86.481C65.7575 88.0963 66.422 89.8348 67.2653 91.4673C71.5775 99.8151 76.4787 107.846 80.6557 116.272C82.6675 120.331 84.7668 124.418 86.1828 128.731C87.2038 131.843 89.5094 136.387 87.5258 139.496C86.0835 141.756 83.1955 142.733 80.8913 143.825C77.4242 145.468 74.228 147.616 70.7228 149.209C66.5429 151.109 62.4839 153.097 58.4097 155.219C56.6721 156.123 55.1041 157.427 53.3722 158.284C52.3131 158.808 50.6772 157.914 50.3323 159.115C49.0046 157.507 46.8557 158.579 45.3197 157.447C44.4163 156.781 43.756 155.469 43.0026 154.649C41.8723 153.419 40.6454 152.278 39.4921 151.07C34.9147 146.271 30.6881 141.273 26.5235 136.118C22.5458 131.196 17.8987 126.545 14.5386 121.157C13.2043 119.018 12.9625 116.775 13.843 114.412C14.4861 112.689 16.0349 110.086 18.2474 111.227C17.4085 109.834 20.6448 108.346 21.6266 108.074C21.6414 108.07 21.8349 109.14 22.1086 109.114C22.0112 109.123 22.9313 106.742 23.3355 106.437C24.5356 105.529 25.9956 104.469 27.3051 103.722C28.5062 103.036 29.7737 102.696 30.937 101.929C32.3473 100.999 33.642 99.8968 35.0576 98.9733C36.4245 98.0818 37.948 97.0279 39.4586 96.4149C40.7686 95.8832 41.9449 95.779 43.1235 94.9076C44.5816 93.8293 45.8534 93.0979 47.5351 92.355C48.9898 91.7124 51.0059 91.151 52.0465 89.8926Z" fill="black"/>
<path fill-rule="evenodd" clip-rule="evenodd" d="M250.628 219.002C250.36 218.373 250.094 217.745 249.826 217.117C249.495 218.212 249.403 218.757 250.628 219.002ZM250.272 221.903C250.851 222.007 250.623 220.189 250.623 219.873C249.622 220.439 250.451 221.119 250.272 221.903ZM251.175 216.659C250.681 216.367 250.187 216.076 249.693 215.784C250.381 217.059 250.111 216.262 249.828 217.114C250.346 217.263 250.851 217.089 251.175 216.659ZM254.103 226.621C255.955 233.34 261.836 238.639 268.049 241.383C271.618 242.96 275.128 243.355 278.983 243.179C280.47 243.111 282.219 242.628 283.65 242.718C284.752 242.787 284.702 242.835 285.615 243.767C286.018 243.024 285.726 242.502 286.536 242.069C287.546 241.53 287.966 242.158 288.467 242.906C289.123 242.226 289.391 241.871 290.241 241.467C290.214 241.48 291.055 241.448 291.02 241.459C291.172 241.412 292.086 240.824 292.372 240.717C293.547 240.277 294.904 240.096 295.988 239.464C296.936 238.912 297.716 237.363 298.801 238.553C298.802 236.564 301.482 235.739 302.738 234.697C304.7 233.069 306.261 230.658 307.239 228.326C308.282 225.839 308.631 223.455 309.119 220.893C309.46 219.102 311.694 216.513 310.353 214.707C310.033 215.464 310.183 216.24 309.652 216.927C309.174 216.007 308.912 214.977 308.696 213.969C308.59 213.475 307.975 212.027 308.045 211.597C308.187 210.717 309.276 210.669 308.672 209.59C307.42 210.953 306.409 208.56 307.355 207.606C307.822 208.133 307.994 208.731 308.209 209.384C309.441 206.898 306.032 207.698 306.778 205.454C305.534 205.215 304.819 204.901 304.346 203.672C303.82 202.304 304.207 202.006 303.012 201.102C302.601 200.792 301.44 200.345 301.227 199.834C300.816 198.846 301.862 198.553 300.946 197.628C300.636 198.171 299.429 199.247 298.768 198.223C298.636 198.019 299.192 197.874 298.788 197.404C298.189 196.709 297.519 196.026 296.507 196.173C297.308 194.169 292.186 194.01 290.874 193.537C289.559 193.063 288.444 192.752 287.05 192.643C285.657 192.533 285.588 192.125 284.409 191.286C284.309 192.486 284.02 192.222 283.167 192.434C282.963 192.082 282.752 192.043 282.537 192.315C282.323 192.519 282.061 192.614 281.753 192.603C281.285 192.627 280.753 192.566 280.263 192.576C279.111 192.599 277.923 192.503 276.793 192.527C276.501 192.478 276.229 192.377 275.974 192.223C275.867 192.423 275.76 192.624 275.654 192.826C275.056 192.901 275.009 193.651 274.273 192.83C274.055 193.873 273.429 193.331 272.768 193.613C272.165 193.872 272.069 194.285 271.513 194.573C271.147 194.869 270.755 194.909 270.335 194.691C269.936 194.987 269.531 195.274 269.12 195.553C268.363 195.98 267.47 196.242 266.673 196.58C266.142 196.799 265.614 197.026 265.091 197.262C265.075 197.894 264.792 198.117 264.242 197.931C263.744 198.347 263.604 198.331 263.122 199.04C262.029 200.645 261.059 201.893 259.678 203.328C253.677 209.567 251.834 218.389 254.103 226.621ZM252.261 200.09C254.971 196.462 258.805 192.307 262.251 190.016C263.998 188.854 266.45 186.769 268.586 186.154C269.092 186.008 269.617 185.999 270.114 185.846C270.499 185.728 270.708 185.333 271.147 185.262C271.453 185.213 271.487 185.899 271.813 185.836C272.494 185.703 272.926 185.027 273.407 184.604C274.441 186.385 275.002 183.39 276.519 185.404C278.325 182.572 282.567 183.191 285.451 183.334C286.306 183.376 286.708 183.68 287.466 183.906C288.172 184.116 288.242 184.062 289.012 184.056C290.931 184.041 292.635 184.282 294.409 185.125C297.389 186.541 300.125 188.747 302.955 190.453C306.119 192.359 308.971 194.786 311.391 197.575C320.141 207.658 322.48 222.376 315.504 234.066C304.422 252.632 275.838 254.616 259.641 242.019C247.127 232.286 242.365 213.34 252.261 200.09Z" fill="black"/>
<path fill-rule="evenodd" clip-rule="evenodd" d="M115.103 147.844C115.414 148.586 118.319 148.336 118.382 147.461C118.477 146.154 114.563 146.555 115.103 147.844ZM112.019 147.359C110.373 147.493 107.669 148.61 106.082 147.935C103.662 146.904 106.204 145.322 107.502 144.849C108.824 144.368 110.792 144.623 111.472 143.241C111.983 142.202 110.72 139.301 112.287 139.768C113.931 140.257 113.453 144.412 116.033 143.012C117.264 142.343 116.762 138.272 118.823 140.352C119.387 140.921 119.437 141.966 120.184 142.39C120.946 142.823 121.903 142.372 122.708 142.41C124.839 142.51 125.518 144.503 123.358 145.294C122.559 145.587 119.546 145.944 121.372 147.25C122.521 148.073 125.076 146.346 126.064 147.779C127.421 149.746 123.785 149.79 122.809 150.379C121.154 151.376 122.52 153.704 122.389 155.362C122.187 157.895 120.715 157.365 120.18 155.222C119.727 153.403 120.289 150.785 117.547 151.508C113.082 152.685 120.03 158.353 116.759 159.804C114.674 160.729 114.379 155.729 114.217 154.868C113.617 151.691 111.832 152.432 109.128 152.529C105.969 152.643 105.207 150.306 108.552 149.637C109.619 149.424 111.087 149.694 112.014 149.014C112.563 148.612 113.317 147.254 112.019 147.359Z" fill="black"/>
<path fill-rule="evenodd" clip-rule="evenodd" d="M321.216 168.379C323.398 169.43 325.581 170.48 327.763 171.531C328.484 169.987 329.703 165.77 331.533 165.232C334.495 164.36 332.609 168.957 332.097 170.008C331.677 170.871 330.703 172.209 330.94 173.238C331.257 174.624 333.213 175.115 334.237 175.831C336.77 177.601 336.75 181.319 333.081 179.744C331.005 178.852 328.434 176.379 326.843 179.187C326.108 180.482 324.367 187.721 322.548 182.987C321.423 180.056 326.839 177.011 324.169 174.532C323.31 173.734 322.303 173.666 321.445 173.208C319.371 172.1 320.54 170.053 321.216 168.379Z" fill="black"/>
<path fill-rule="evenodd" clip-rule="evenodd" d="M1.27196 63.4935C2.57288 63.0176 4.18242 62.0884 5.62857 62.4052C7.1655 62.7415 7.78419 64.2808 8.90166 65.2062C11.9397 67.7226 13.7093 63.9722 15.3785 61.9169C16.9551 59.9763 18.8786 59.5052 21.103 60.6977C21.9892 61.173 25.7228 63.3511 25.0717 64.7466C24.6035 65.7509 22.7589 64.8494 22.1297 64.6301C20.7638 64.1547 19.4953 63.7386 18.0984 64.4318C15.4779 65.7313 14.7981 69.2948 11.6277 69.8505C8.34939 70.4252 8.24189 67.3055 5.90233 66.1312C4.33387 65.3443 3.24126 66.7374 1.72821 66.4599C0.286358 66.1957 -0.380589 64.0974 1.27196 63.4935Z" fill="black"/>
<path fill-rule="evenodd" clip-rule="evenodd" d="M27.7388 76.0664C26.5793 76.3182 25.8225 74.0694 25.0968 73.499C23.8929 72.5535 21.8056 72.3629 20.5797 73.3146C18.1857 75.1721 19.0107 79.1823 15.602 80.2277C12.5554 81.1622 11.1202 77.1495 8.55561 76.1505C7.06455 75.5696 5.42777 75.1893 6.00968 73.1049C6.41147 71.6635 7.59534 71.2932 8.88241 71.8469C11.0944 72.7977 11.8454 76.6708 14.4678 76.7401C17.181 76.8117 17.4753 72.9004 18.64 71.1967C20.4158 68.6001 24.0663 67.9728 26.1407 70.4557C26.7671 71.2048 29.947 75.5882 27.7388 76.0664Z" fill="black"/>
<path fill-rule="evenodd" clip-rule="evenodd" d="M81.3701 31.7261C79.7572 32.8297 76.5429 32.7914 75.057 31.4227C73.545 30.03 75.5635 29.816 76.7951 29.8585C77.7425 29.8915 79.5159 30.3611 78.976 28.7248C78.4969 27.2729 75.863 28.012 75.6432 26.4182C77.6254 26.0628 79.8088 26.1908 81.275 27.7488C82.3351 28.8748 82.8797 30.6927 81.3701 31.7261Z" fill="black"/>
</svg>
